{
    "photos": {
        "page": "1",
        "pages": 5,
        "perpage": "3",
        "total": 13,
        "photo": [
            {
                "id": "8432423659",
                "owner": "37107167@N07",
                "secret": "dd1b834ec5",
                "server": "8187",
                "farm": 9,
                "title": "Color",
                "ispublic": 1,
                "isfriend": 0,
                "isfamily": 0,
                "is_primary": 1,
                "has_comment": 0
            },
            {
                "id": "8047948330",
                "owner": "70121902@N00",
                "secret": "b0e55d455f",
                "server": "8450",
                "farm": 9,
                "title": "Owens River and Sea Grass",
                "ispublic": 1,
                "isfriend": 0,
                "isfamily": 0,
                "is_primary": 0,
                "has_comment": 0
            },
            {
                "id": "2209143676",
                "owner": "14478436@N02",
                "secret": "ae987333b5",
                "server": "2072",
                "farm": 3,
                "title": "2008/01/19~20 Xiao Liu Qiu,TAIWAN 小琉球",
                "ispublic": 1,
                "isfriend": 0,
                "isfamily": 0,
                "is_primary": 0,
                "has_comment": 0
            }
        ]
    },
    "stat": "ok"
}
